[gd_scene load_steps=4 format=2]

[ext_resource path="res://assets/bar_indicator.png" type="Texture" id=1]
[ext_resource path="res://assets/status_bar.png" type="Texture" id=2]
[ext_resource path="res://BarIndicator.gd" type="Script" id=3]

[node name="BarIndicator" type="Node2D"]
script = ExtResource( 3 )

[node name="Background" type="Sprite" parent="."]
modulate = Color( 0.541176, 0.541176, 0.541176, 1 )
position = Vector2( -8, 7.62939e-06 )
scale = Vector2( 4, 10 )
texture = ExtResource( 2 )

[node name="Bar" type="Sprite" parent="."]
position = Vector2( -24, 120 )
scale = Vector2( 4, 10 )
texture = ExtResource( 2 )
centered = false
offset = Vector2( 0, -24 )
flip_v = true

[node name="Indicator" type="Sprite" parent="."]
position = Vector2( -8, 0 )
texture = ExtResource( 1 )
