[gd_scene load_steps=6 format=2]

[ext_resource path="res://assets/textbox/Box.png" type="Texture" id=1]
[ext_resource path="res://assets/textbox/Customer_One.png" type="Texture" id=2]
[ext_resource path="res://assets/default-font.ttf" type="DynamicFontData" id=3]
[ext_resource path="res://DialogueBox.gd" type="Script" id=4]

[sub_resource type="DynamicFont" id=1]
size = 50
font_data = ExtResource( 3 )

[node name="DialogueBox" type="Node2D"]
visible = false
z_index = 420
script = ExtResource( 4 )

[node name="BoxTex" type="TextureRect" parent="."]
margin_left = 71.4807
margin_top = 567.64
margin_right = 1836.48
margin_bottom = 1014.64
texture = ExtResource( 1 )
__meta__ = {
"_edit_use_anchors_": false
}

[node name="PortraitTex" type="TextureRect" parent="."]
margin_left = 71.4807
margin_top = 567.64
margin_right = 1836.48
margin_bottom = 1014.64
texture = ExtResource( 2 )
__meta__ = {
"_edit_use_anchors_": false
}

[node name="TextBox" type="RichTextLabel" parent="."]
margin_left = 409.0
margin_top = 766.0
margin_right = 1801.0
margin_bottom = 965.0
custom_fonts/normal_font = SubResource( 1 )
text = "It is a good thing you look cute because that would be the only reason I will come here again."
__meta__ = {
"_edit_use_anchors_": false
}

[node name="Timer" type="Timer" parent="."]
wait_time = 2.0
one_shot = true
[connection signal="timeout" from="Timer" to="." method="_on_Timer_timeout"]
