[gd_scene load_steps=2 format=2]

[ext_resource path="res://sounds/alexander-nakarada-dungeons-and-dragons.mp3.wav" type="AudioStream" id=1]

[node name="Music" type="Control"]
anchor_right = 1.0
anchor_bottom = 1.0
__meta__ = {
"_edit_use_anchors_": false
}

[node name="AudioStreamPlayer" type="AudioStreamPlayer" parent="."]
stream = ExtResource( 1 )
volume_db = 6.0
autoplay = true
