[gd_scene load_steps=7 format=2]

[ext_resource path="res://assets/Furnace_Off.png" type="Texture" id=1]
[ext_resource path="res://Stations/Forge.gd" type="Script" id=2]
[ext_resource path="res://icon.png" type="Texture" id=3]
[ext_resource path="res://Stations/Area2DFront.gd" type="Script" id=4]
[ext_resource path="res://Stations/Area2DBack.gd" type="Script" id=5]

[sub_resource type="ConvexPolygonShape2D" id=1]
points = PoolVector2Array( 0, 20, 34, 0, 0, -20, -34, 0 )

[node name="Forge" type="StaticBody2D"]
z_index = 2
script = ExtResource( 2 )

[node name="CollisionShape2D" type="CollisionShape2D" parent="."]
scale = Vector2( 2, 2 )
shape = SubResource( 1 )

[node name="Sprite" type="Sprite" parent="."]
position = Vector2( 0, -18 )
scale = Vector2( 0.5, 0.5 )
texture = ExtResource( 1 )

[node name="ItemSprite" type="Sprite" parent="."]
visible = false
position = Vector2( -34, 2 )
scale = Vector2( 0.25, 0.25 )
texture = ExtResource( 3 )

[node name="Area2DFront" type="Area2D" parent="."]
script = ExtResource( 4 )

[node name="FrontZ" type="CollisionPolygon2D" parent="Area2DFront"]
polygon = PoolVector2Array( 66, 0, 64.8998, 67.9935, 0.0912628, 112.314, -67.6441, 65.0667, -67.9182, 0.00995827, -0.636169, 39.279 )

[node name="Area2DBack" type="Area2D" parent="."]
script = ExtResource( 5 )

[node name="BackZ" type="CollisionPolygon2D" parent="Area2DBack"]
rotation = -3.14159
polygon = PoolVector2Array( 55.1002, -0.258298, 53.8458, 36.5363, -11.799, 82.9477, -38.9769, 69.5678, -63.0112, 46.8959, -60.5078, 4.58779, -0.0481227, 40.0607 )
