[gd_scene load_steps=6 format=2]

[ext_resource path="res://assets/Grindstone.png" type="Texture" id=1]
[ext_resource path="res://Stations/Grind.gd" type="Script" id=2]
[ext_resource path="res://icon.png" type="Texture" id=3]
[ext_resource path="res://sounds/232102__thalamus-lab__stone-grind.wav" type="AudioStream" id=4]

[sub_resource type="ConvexPolygonShape2D" id=1]
points = PoolVector2Array( 0, 20, 34, 0, 0, -20, -34, 0 )

[node name="Grind" type="StaticBody2D"]
script = ExtResource( 2 )

[node name="CollisionShape2D" type="CollisionShape2D" parent="."]
shape = SubResource( 1 )

[node name="Sprite" type="Sprite" parent="."]
position = Vector2( 0, -12 )
scale = Vector2( 0.25, 0.25 )
texture = ExtResource( 1 )

[node name="ItemSprite" type="Sprite" parent="."]
visible = false
position = Vector2( -15, -51 )
scale = Vector2( 0.25, 0.25 )
texture = ExtResource( 3 )

[node name="GrindNoise" type="AudioStreamPlayer2D" parent="."]
stream = ExtResource( 4 )
