[gd_scene load_steps=5 format=2]

[ext_resource path="res://assets/Workbench.png" type="Texture" id=1]
[ext_resource path="res://Stations/Workbench.gd" type="Script" id=2]
[ext_resource path="res://icon.png" type="Texture" id=3]

[sub_resource type="ConvexPolygonShape2D" id=1]
points = PoolVector2Array( 17, 30, 51, 10, -17, -30, -51, -10 )

[node name="Workbench" type="StaticBody2D"]
script = ExtResource( 2 )

[node name="CollisionShape2D" type="CollisionShape2D" parent="."]
scale = Vector2( 2, 2 )
shape = SubResource( 1 )

[node name="Sprite" type="Sprite" parent="."]
position = Vector2( 0, -9 )
scale = Vector2( 0.5, 0.5 )
texture = ExtResource( 1 )

[node name="ItemSprite" type="Sprite" parent="."]
visible = false
position = Vector2( 6, -38 )
scale = Vector2( 0.25, 0.25 )
texture = ExtResource( 3 )
